Analyze a grid of Td and Ed values
…
In this vignette we show how we would go about using
snvec() for a range of input values.

Create a grid of Td and Ed

We create a grid of input values for Td and Ed.
The values in the grid are based on Zeebe and Lourens (2022) table
2.

biggrid <- expand.grid(Td = c(0, 0.5, 0.7, 0.8, 0.9, 1.0, 1.1, 1.2),
              Ed = c(1.000, 0.998, 1.005, 1.012)) |>
    as_tibble()
    # that's 32 rows
biggrid
#> # A tibble: 32 × 2
#>       Td    Ed
#>    <dbl> <dbl>
#>  1   0   1    
#>  2   0.5 1    
#>  3   0.7 1    
#>  4   0.8 1    
#>  5   0.9 1    
#>  6   1   1    
#>  7   1.1 1    
#>  8   1.2 1    
#>  9   0   0.998
#> 10   0.5 0.998
#> # ℹ 22 more rows
…
We can see the list column sol in this result! But we’d
like to access the raw output, so we use unnest().

expanded <- biggrid |>
  unnest(sol)
expanded
#> # A tibble: 3,200 × 8
#>       Td    Ed   atol  tend  time   epl     phi       cp
#>    <dbl> <dbl>  <dbl> <dbl> <dbl> <dbl>   <dbl>    <dbl>
#>  1     0     1 0.0001 -1000  -505 0.407 -2.21   -0.0299 
#>  2     0     1 0.0001 -1000  -510 0.399 -0.978  -0.0128 
#>  3     0     1 0.0001 -1000  -515 0.395  0.269   0.0214 
#>  4     0     1 0.0001 -1000  -520 0.398  1.52    0.0139 
#>  5     0     1 0.0001 -1000  -525 0.406  2.76   -0.00969
#>  6     0     1 0.0001 -1000  -530 0.416 -2.31   -0.0132 
#>  7     0     1 0.0001 -1000  -535 0.422 -1.12   -0.00440
#>  8     0     1 0.0001 -1000  -540 0.420  0.0696  0.00789
#>  9     0     1 0.0001 -1000  -545 0.410  1.27    0.0168 
#> 10     0     1 0.0001 -1000  -550 0.399  2.50    0.00157
#> # ℹ 3,190 more rows
…
This could look like this:

biggrid <- biggrid |>
  # get rid of sol column
  select(-sol) |>
  # add a filename that's easy to break into relevant parameters later
  # I write to tempdir here, but you might want to write to something like out/
  mutate(file = glue::glue("{tempdir()}/2023-04-13_biggrid_{Td}_{Ed}_{atol}_{tend}.rds"))
biggrid
#> # A tibble: 32 × 5
#>       Td    Ed   atol  tend file                                                
#>    <dbl> <dbl>  <dbl> <dbl> <glue>                                              
#>  1   0   1     0.0001 -1000 /tmp/RtmpCBMLTS/2023-04-13_biggrid_0_1_1e-04_-1000.…
#>  2   0.5 1     0.0001 -1000 /tmp/RtmpCBMLTS/2023-04-13_biggrid_0.5_1_1e-04_-100…
#>  3   0.7 1     0.0001 -1000 /tmp/RtmpCBMLTS/2023-04-13_biggrid_0.7_1_1e-04_-100…
#>  4   0.8 1     0.0001 -1000 /tmp/RtmpCBMLTS/2023-04-13_biggrid_0.8_1_1e-04_-100…
#>  5   0.9 1     0.0001 -1000 /tmp/RtmpCBMLTS/2023-04-13_biggrid_0.9_1_1e-04_-100…
#>  6   1   1     0.0001 -1000 /tmp/RtmpCBMLTS/2023-04-13_biggrid_1_1_1e-04_-1000.…
#>  7   1.1 1     0.0001 -1000 /tmp/RtmpCBMLTS/2023-04-13_biggrid_1.1_1_1e-04_-100…
#>  8   1.2 1     0.0001 -1000 /tmp/RtmpCBMLTS/2023-04-13_biggrid_1.2_1_1e-04_-100…
#>  9   0   0.998 0.0001 -1000 /tmp/RtmpCBMLTS/2023-04-13_biggrid_0_0.998_1e-04_-1…
#> 10   0.5 0.998 0.0001 -1000 /tmp/RtmpCBMLTS/2023-04-13_biggrid_0.5_0.998_1e-04_…
#> # ℹ 22 more rows
…
